"Point.Forecast";"Lo.80";"Hi.80";"Lo.95";"Hi.95"
88.1963790935521;85.7335911966866;90.6694087724254;84.3957120152563;92.1612663606056
87.7944575824109;84.8910126917973;90.7281817829612;83.4029342967639;92.4542586818795
87.4023515848859;84.101518132635;90.6509219372466;82.5315989531971;92.5970877473582
87.0197867946428;83.5182403360738;90.5391257771053;81.8885643564697;92.6001189224019
86.6464979601812;82.8193840959611;90.4950204828045;80.8864636356139;92.6298152934958
86.2822285315941;82.1900305145028;90.5352753055188;80.13048833226;92.64848738195
85.926730323235;81.6899773277417;90.4399565642459;79.3717239279844;92.9604682331102
85.579763191489;81.0690047073871;90.2915670365072;78.748388289175;92.9093712945988
85.241094726885;80.477059718302;90.2055893706758;78.1544636108002;92.9123483189865
84.9104999598338;79.8699962099086;90.0614045611246;77.3227197603203;93.1984416435695
84.5877610793104;79.424976345574;89.9298083853668;76.9413057809156;92.912980162243
84.2726671638415;78.9458126587111;89.6936138888961;76.1826987565106;92.7969356565901
83.9650139241914;78.4909162436282;89.6354498985616;75.6072673346452;92.7455906983724
83.6646034571726;77.9661887998701;89.481421605086;74.9353303992604;92.7381643045695
83.37124401004;77.4722429241735;89.1923662982769;74.6934436589412;92.6239694439238
83.084749754954;77.1326882420315;89.2562656873074;73.9456474021983;92.4697577474778
82.8049405730293;76.7481513516808;89.0952213524667;73.5863426615704;92.8414809941208
82.5316418475074;76.3617559805208;88.9111387180761;73.1306509589583;92.8264359699778
82.2646842656199;76.1074798475361;88.8572549755434;72.5846540834095;92.4514737442439
82.0039036287276;75.7061707752691;88.6966631838581;72.3310461850322;92.5674274632146
81.7491406703473;75.4000138961835;88.5608300411366;71.9404101382507;92.4981260950196
81.5002408816942;74.8948647531094;88.6526216857145;71.3635104383498;92.3051901255425
81.2570543443902;74.5032999835408;88.4443802772168;71.1777855293026;92.3274706449804
81.0194355700036;74.2005455523841;88.3540062986322;70.7117107109779;92.4552696724695
